

#### Develop the province
estate_eunuchs_develop_x = {
	selection_weight = {
		factor = 1
	}
	can_select = {
		capital_scope = {
			is_state_core = root
		}
	}
	pre_effect = {
		random_list = {
			1 = {
				random_owned_province = {
					limit = {
						is_state_core = root
						area_for_scope_province = {
							is_capital_of = root
						}
					}
					save_event_target_as = agenda_province
				}
			}
			2 = {
				trigger = {
					any_owned_province = {
						is_state_core = root
						OR = {
							AND = {
								religion = root
								OR = {
									culture = root
									has_owner_accepted_culture = yes
								}
							}
						}
						region_for_scope_province = {
							is_capital_of = root
						}
					}
				}
				random_owned_province = {
					limit = {
						is_state_core = root
						OR = {
							AND = {
								religion = root
								OR = {
									culture = root
									has_owner_accepted_culture = yes
								}
							}
						}
						region_for_scope_province = {
							is_capital_of = root
						}
					}
					save_event_target_as = agenda_province
				}
			}
			1 = {
				random_owned_province = {
					limit = {
						is_state_core = root
					}
					save_event_target_as = agenda_province
				}
			}
		}
		event_target:agenda_province = {
			if = {
				limit = {
					check_variable = {
						which = province_adm_var
						value = 1
					}
				}
				set_variable = {
					which = province_adm_var
					value = 0
				}
			}
			export_to_variable = {
				which = province_adm_var
				value = trigger_value:base_tax
			}
			change_variable = {
				which = province_adm_var
				value = 2
			}
		}
	}
	provinces_to_highlight = {
		province_id = event_target:agenda_province
	}
	fail_if = {
		event_target:agenda_province = {
			NOT = { owned_by = root }
		}
	}
    task_requirements = {
		event_target:agenda_province = {
			base_tax = "province_adm_var"
		}
    }
    task_completed_effect = {
		add_estate_loyalty = {
			estate = estate_eunuchs
			loyalty = 10
		}
		add_prestige = 10
    }
    failing_effect = {
		event_target:agenda_province = {
			if = {
				limit = { owned_by = root }
				add_named_unrest = {
					name = local_administration_displeased
					value = 5
				}
			}
		}
        add_estate_loyalty_modifier = {
            estate = estate_eunuchs
			desc = EST_VAL_AGENDA_DENIED
			loyalty = -5
			duration = 7300
        }
    }
}

#### Build a university
estate_eunuchs_build_university_in_y = {
	can_select = {
		adm_tech = 17
		any_owned_province = {
			is_state_core = root
			NOT = { has_building = university }
			OR = {
				development = 10
				is_capital = yes
			}
		}
	}
	selection_weight = {
		factor = 1
		modifier = {
			factor = 0.75
			NOT = {
				any_owned_province = {
					is_state_core = root
					NOT = { has_building = university }
					development = 15
				}
			}
		}
		modifier = {
			factor = 1.2
			any_owned_province = {
				is_state_core = root
				NOT = { has_building = university }
				development = 20
			}
		}
		modifier = {
			factor = 2
			is_institution_enabled = enlightenment
			NOT = { has_institution = enlightenment }
		}
	}
	pre_effect = {
		random_owned_province = {
			limit = {
				is_state_core = root
				NOT = { has_building = university }
				development = 10
			}
			save_event_target_as = agenda_province
		}
		random_owned_province = {
			limit = {
				is_state_core = root
				NOT = { has_building = university }
				development = 15
			}
			save_event_target_as = agenda_province
		}
		random_owned_province = {
			limit = {
				is_state_core = root
				NOT = { has_building = university }
				development = 20
			}
			save_event_target_as = agenda_province
		}
		random_owned_province = {
			limit = {
				is_state_core = root
				NOT = { has_building = university }
				is_capital = yes
			}
			save_event_target_as = agenda_province
		}
	}
	provinces_to_highlight = {
		province_id = event_target:agenda_province
	}
	fail_if = {
		event_target:agenda_province = {
			NOT = { owned_by = root }
		}
	}
    task_requirements = {
		event_target:agenda_province = {
			has_building = university
		}
    }
    task_completed_effect = {
		add_estate_loyalty = {
			estate = estate_eunuchs
			loyalty = 10
		}
		add_adm_power = 35
		add_dip_power = 35
		add_mil_power = 35
    }
    failing_effect = {
		event_target:agenda_province = {
			if = {
				limit = { owned_by = root }
				add_named_unrest = {
					name = local_administration_displeased
					value = 5
				}
			}
		}
        add_estate_loyalty_modifier = {
            estate = estate_eunuchs
			desc = EST_VAL_AGENDA_DENIED
			loyalty = -5
			duration = 7300
        }
    }
}

#Build a workshop or manufactory
estate_eunuchs_build_production_building_in_y = {
	can_select = {
		adm_tech = 6
		any_owned_province = {
			is_state_core = root
			NOT = { has_building = counting_house }
			OR = {
				AND = {
					NOT = { has_building = workshop }
					num_free_building_slots = 1
				}
				AND = {
					ROOT = { adm_tech = 24 }
					OR = {
						has_building = workshop
						num_free_building_slots = 1
					}
				}
			}
			NOT = { trade_goods = gold }
		}
	}
	selection_weight = {
		factor = 1
		modifier = {
			factor = 0.65
			NOT = {
				any_owned_province = {
					is_state_core = root
					base_production = 4
					NOT = { has_building = counting_house }
					OR = {
						AND = {
							NOT = { has_building = workshop }
							num_free_building_slots = 1
						}
						AND = {
							ROOT = { adm_tech = 24 }
							OR = {
								has_building = workshop
								num_free_building_slots = 1
							}
						}
					}
					NOT = { trade_goods = gold }
				}
			}
		}
		modifier = {
			factor = 1.2
			any_owned_province = {
				is_state_core = root
				OR = {
					base_production = 7
					has_building = wharf
					has_building = weapons
					has_building = textile
					has_building = tradecompany
					has_building = farm_estate
					has_building = mills
					has_building = plantations
					has_building = furnace
				}
				NOT = { has_building = counting_house }
				OR = {
					AND = {
						NOT = { has_building = workshop }
						num_free_building_slots = 1
					}
					AND = {
						ROOT = { adm_tech = 24 }
						OR = {
							has_building = workshop
							num_free_building_slots = 1
						}
					}
				}
				NOT = { trade_goods = gold }
			}
		}
		modifier = {
			factor = 2
			NOT = {
				crown_land_share = 15
			}
		}
	}
	pre_effect = {
		set_variable = {
			which = estate_eunuchs_build_production_building_in_y_var
			value = 0
		}
		random_owned_province = {
			limit = {
				is_state_core = root
				NOT = { has_building = counting_house }
				OR = {
					AND = {
						NOT = { has_building = workshop }
						num_free_building_slots = 1
					}
					AND = {
						ROOT = { adm_tech = 24 }
						OR = {
							has_building = workshop
							num_free_building_slots = 1
						}
					}
				}
				NOT = { trade_goods = gold }
			}
			save_event_target_as = agenda_province
		}
		random_owned_province = {
			limit = {
				is_state_core = root
				base_production = 4
				NOT = { has_building = counting_house }
				OR = {
					AND = {
						NOT = { has_building = workshop }
						num_free_building_slots = 1
					}
					AND = {
						ROOT = { adm_tech = 24 }
						OR = {
							has_building = workshop
							num_free_building_slots = 1
						}
					}
				}
				NOT = { trade_goods = gold }
			}
			save_event_target_as = agenda_province
		}
		random_owned_province = {
			limit = {
				is_state_core = root
				OR = {
					base_production = 7
					has_building = wharf
					has_building = weapons
					has_building = textile
					has_building = tradecompany
					has_building = farm_estate
					has_building = mills
					has_building = plantations
					has_building = furnace
				}
				NOT = { has_building = counting_house }
				OR = {
					AND = {
						NOT = { has_building = workshop }
						num_free_building_slots = 1
					}
					AND = {
						ROOT = { adm_tech = 24 }
						OR = {
							has_building = workshop
							num_free_building_slots = 1
						}
					}
				}
				NOT = { trade_goods = gold }
			}
			save_event_target_as = agenda_province
		}
		event_target:agenda_province = {
			if = {
				limit = {
					has_building = workshop
				}
				ROOT = {
					set_variable = {
						which = estate_eunuchs_build_production_building_in_y_var
						value = 2
					}
				}
			}
			else = {
				ROOT = {
					set_variable = {
						which = estate_eunuchs_build_production_building_in_y_var
						value = 1
					}
				}
			}
		}
	}
	provinces_to_highlight = {
		province_id = event_target:agenda_province
	}
	fail_if = {
		event_target:agenda_province = {
			NOT = { owned_by = root }
		}
	}
    task_requirements = {
		if = {
			limit = {
				check_variable = {
					which = estate_eunuchs_build_production_building_in_y_var
					value = 2
				}
			}
			event_target:agenda_province = {
				has_building = counting_house
			}
		}
		else = {
			event_target:agenda_province = {
				OR = {
					has_building = workshop
					has_building = counting_house
				}
			}
		}
    }
    task_completed_effect = {
		add_estate_loyalty = {
			estate = estate_eunuchs
			loyalty = 10
		}
		if = {
			limit = {
				NOT = { crown_land_share = 15 }
				estate_territory = {
					estate = estate_eunuchs
					territory = 10
				}
			}
			take_estate_land_share_small = { estate = estate_eunuchs }
		}
		else = {
			event_target:agenda_province = {
				add_base_production = 1
			}
		}
		raj_cohesion_change = { amount = 0.5 }
    }
    failing_effect = {
		event_target:agenda_province = {
			if = {
				limit = { owned_by = root }
				add_named_unrest = {
					name = local_administration_displeased
					value = 5
				}
			}
		}
        add_estate_loyalty_modifier = {
            estate = estate_eunuchs
			desc = EST_VAL_AGENDA_DENIED
			loyalty = -5
			duration = 7300
        }
		raj_cohesion_change = { amount = -0.5 }
    }
}

#Build a manufactory
estate_eunuchs_build_manufactory_in_y = {
	can_select = {
		any_owned_province = {
			is_state_core = root
			root_can_build_manufactory_here_trigger = yes
			has_nobles_trade_good_trigger = yes
		}
		monthly_income = 30
	}
	selection_weight = {
		factor = 1
		modifier = {
			factor = 0.5
			OR = {
				current_age = age_of_discovery
				current_age = age_of_reformation
			}
		}
		modifier = {
			factor = 0.5
			NOT = { monthly_income = 40 }
		}
		modifier = {
			factor = 2
			monthly_income = 60
		}
		modifier = {
			factor = 2
			is_institution_enabled = manufactories
			NOT = { has_institution = manufactories }
		}
	}
	pre_effect = {
		random_owned_province = {
			limit = {
				is_state_core = root
				root_can_build_manufactory_here_trigger = yes
				has_nobles_trade_good_trigger = yes
			}
			save_event_target_as = agenda_province
		}
		random_owned_province = {
			limit = {
				is_state_core = root
				base_production = 5
				root_can_build_manufactory_here_trigger = yes
				has_nobles_trade_good_trigger = yes
			}
			save_event_target_as = agenda_province
		}
		random_owned_province = {
			limit = {
				is_state_core = root
				base_production = 10
				root_can_build_manufactory_here_trigger = yes
				has_nobles_trade_good_trigger = yes
			}
			save_event_target_as = agenda_province
		}
	}
	provinces_to_highlight = {
		province_id = event_target:agenda_province
	}
	fail_if = {
		event_target:agenda_province = {
			NOT = { owned_by = root }
		}
	}
    task_requirements = {
		event_target:agenda_province = {
			custom_trigger_tooltip = {
				tooltip = has_manufactory_trigger_tooltip
				
				if = {
					limit = {
						OR = {
							trade_goods = naval_supplies
							trade_goods = fish
							trade_goods = salt
						}
					}
					has_building = wharf
				}
				else_if = {
					limit = {
						OR = {
							trade_goods = copper
							trade_goods = iron
						}
					}
					has_building = weapons
				}
				else_if = {
					limit = {
						OR = {
							trade_goods = wool
							trade_goods = cloth
							trade_goods = silk
							trade_goods = dyes
						}
					}
					has_building = textile
				}
				else_if = {
					limit = {
						OR = {
							trade_goods = ivory
							trade_goods = slaves
							trade_goods = spices
							trade_goods = fur
							trade_goods = incense
						}
					}
					has_building = tradecompany
				}
				else_if = {
					limit = {
						OR = {
							trade_goods = grain
							trade_goods = livestock
							trade_goods = wine
						}
					}
					has_building = farm_estate
				}
				else_if = {
					limit = {
						OR = {
							trade_goods = paper
							trade_goods = gems
							trade_goods = tropical_wood
							trade_goods = glass
							trade_goods = chinaware
						}
					}
					has_building = mills
				}
				else_if = {
					limit = {
						trade_goods = coal
					}
					has_building = furnace
				}
				else = {
					has_building = plantations
				}
			}
		}
    }
    task_completed_effect = {
		add_estate_loyalty = {
			estate = estate_eunuchs
			loyalty = 10
		}
		event_target:agenda_province = {
			add_base_manpower = 1
			add_province_modifier = {
				name = prospering_production
				duration = 5475
			}
		}
    }
    failing_effect = {
		event_target:agenda_province = {
			if = {
				limit = { owned_by = root }
				add_named_unrest = {
					name = local_administration_displeased
					value = 5
				}
			}
		}
        add_estate_loyalty_modifier = {
            estate = estate_eunuchs
			desc = EST_VAL_AGENDA_DENIED
			loyalty = -5
			duration = 7300
        }
    }
}

#Stabilise Country
estate_eunuchs_recover_stability = {
	can_select = {
		NOT = { stability = 0 }
	}
	selection_weight = {
		factor = 2
		modifier = {
			factor = 1.5
			NOT = { stability = -1 }
		}
	}
	task_requirements = {
		stability = 1
	}
    task_completed_effect = {
		add_estate_loyalty = {
			estate = estate_eunuchs
			loyalty = 10
		}
		add_prestige = 10
    }
    failing_effect = {
        add_estate_loyalty_modifier = {
            estate = estate_eunuchs
			desc = EST_VAL_AGENDA_DENIED
			loyalty = -5
			duration = 7300
        }
    }
}

#Stabilise Country II
estate_eunuchs_increase_stability = {
	can_select = {
		NOT = { stability = 2 }
		stability = 1
	}
	selection_weight = {
		factor = 1
	}
	fail_if = {
		NOT = { stability = 0 }
	}
	task_requirements = {
		stability = 3
	}
    task_completed_effect = {
		add_estate_loyalty = {
			estate = estate_eunuchs
			loyalty = 10
		}
		add_prestige = 10
    }
    failing_effect = {
        add_estate_loyalty_modifier = {
            estate = estate_eunuchs
			desc = EST_VAL_AGENDA_DENIED
			loyalty = -5
			duration = 7300
        }
    }
}

#Reduce overextension
estate_eunuchs_reduce_overextension = {
	can_select = {
		overextension_percentage = 0.50
	}
	selection_weight = {
		factor = 2
		modifier = {
			factor = 1.5
			overextension_percentage = 0.75
		}
		modifier = {
			factor = 1.5
			overextension_percentage = 1
		}
	}
	provinces_to_highlight = {
		owned_by = root
		NOT = { is_core = root }
	}
	task_requirements = {
		NOT = { overextension_percentage = 0.01 }
	}
    task_completed_effect = {
		add_estate_loyalty = {
			estate = estate_eunuchs
			loyalty = 10
		}
		add_adm_power = 50
    }
    failing_effect = {
        add_estate_loyalty_modifier = {
            estate = estate_eunuchs
			desc = EST_VAL_AGENDA_DENIED
			loyalty = -5
			duration = 7300
        }
    }
}

#Hire/Fire advisor
estate_eunuchs_hire_advisor = {
	can_select = {
		NOT = {
			employed_advisor = {
				category = ADM
			}
		}
	}
	selection_weight = {
		factor = 1
	}
	task_requirements = {
		employed_advisor = {
			category = ADM
		}
		is_in_deficit = no
	}
    task_completed_effect = {
		add_estate_loyalty = {
			estate = estate_eunuchs
			loyalty = 10
		}
    }
    failing_effect = {
        add_estate_loyalty_modifier = {
            estate = estate_eunuchs
			desc = EST_VAL_AGENDA_DENIED
			loyalty = -5
			duration = 7300
        }
    }
}

estate_eunuchs_fire_advisor = {
	can_select = {
		employed_advisor = {
			category = ADM
		}
	}
	selection_weight = {
		factor = 1
		modifier = {
			factor = 0.5
			always = yes
		}
		modifier = {
			factor = 0.5
			employed_advisor = {
				type = philosopher
				religion = root
			}
		}
		modifier = {
			factor = 2
			advisor = philosopher
			NOT = {
				employed_advisor = {
					type = philosopher
					religion = root
				}
			}
		}
	}
	immediate_effect = {
		hidden_effect = {
			set_country_flag = need_to_fire_adm_advisor
		}
	}
	on_invalid = {
		clr_country_flag = need_to_fire_adm_advisor
	}
	task_requirements = {
		custom_trigger_tooltip = {
			tooltip = fire_adm_advisor_tooltip
			has_country_flag = just_fired_adm_advisor
		}
	}
    task_completed_effect = {
		add_estate_loyalty = {
			estate = estate_eunuchs
			loyalty = 10
		}
		clr_country_flag = just_fired_adm_advisor
		clr_country_flag = need_to_fire_adm_advisor
	}
	invalid_trigger = {
		NOT = {
			employed_advisor = {
				category = ADM
			}
		}
		NOT = { has_country_flag = just_fired_adm_advisor }
	}
    failing_effect = {
        add_estate_loyalty_modifier = {
            estate = estate_eunuchs
			desc = EST_VAL_AGENDA_DENIED
			loyalty = -5
			duration = 7300
        }
		clr_country_flag = need_to_fire_adm_advisor
    }
}

#Reduce Inflation
estate_eunuchs_restore_currency = {
	can_select = {
		inflation = 10
		NOT = {
			inflation = 30
		}
		NOT = { has_country_modifier = boom_economy }
	}
	selection_weight = {
		factor = 2.5
		modifier = {
			factor = 2
			inflation = 20
		}
	}
	fail_if = {
		inflation = 35
	}
	task_requirements = {
		NOT = { inflation = 5 }
	}
    task_completed_effect = {
		add_estate_loyalty = {
			estate = estate_eunuchs
			loyalty = 10
		}
		add_country_modifier = {
			name = boom_economy
			duration = 5475
		}
    }
    failing_effect = {
        add_estate_loyalty_modifier = {
            estate = estate_eunuchs
			desc = EST_VAL_AGENDA_DENIED
			loyalty = -5
			duration = 7300
        }
    }
}

#Recover Abysmal Inflation
estate_eunuchs_recovery_from_hyperinflation = {
	can_select = {
		inflation = 30
	}
	selection_weight = {
		factor = 5
	}
	task_requirements = {
		NOT = { inflation = 15 }
	}
    task_completed_effect = {
		add_estate_loyalty = {
			estate = estate_eunuchs
			loyalty = 10
		}
		add_stability_or_adm_power = yes
		add_inflation = -10
    }
    failing_effect = {
        add_estate_loyalty_modifier = {
            estate = estate_eunuchs
			desc = EST_VAL_AGENDA_DENIED
			loyalty = -5
			duration = 7300
        }
    }
}

#Get a treasury
estate_eunuchs_get_cash = {
	can_select = {
		NOT = { years_of_income = 0.5 }
		NOT = { num_of_loans = 1 }
		is_at_war = no
	}
	selection_weight = {
		factor = 1
	}
	task_requirements = {
		years_of_income = 2.5
		NOT = { num_of_loans = 1 }
	}
	fail_if = {
		num_of_loans = 1
	}
	task_completed_effect = {
		if = {
			limit = {
				inflation = 5
			}
			add_estate_loyalty = {
				estate = estate_eunuchs
				loyalty = 10
			}
			generate_scaled_advisor_of_type_and_religion_effect = {
				type = master_of_mint
				religion = root
				discount = yes
			}
		}
		else = {
			add_estate_loyalty = {
				estate = estate_eunuchs
				loyalty = 15
			}
		}
	}
    failing_effect = {
        add_estate_loyalty_modifier = {
            estate = estate_eunuchs
			desc = EST_VAL_AGENDA_DENIED
			loyalty = -5
			duration = 7300
        }
    }
}

#Pay off loans
estate_eunuchs_pay_off_loans = {
	can_select = {
		num_of_loans = 5
		is_bankrupt = no
	}
	selection_weight = {
		factor = 2
		modifier = {
			factor = 0.5
			is_at_war = yes
		}
		modifier = {
			factor = 1.5
			num_of_loans = 10
		}
		modifier = {
			factor = 1.5
			num_of_loans = 15
		}
		modifier = {
			factor = 1.5
			num_of_loans = 20
		}
	}
	fail_if = {
		is_bankrupt = yes
	}
	task_requirements = {
		NOT = { num_of_loans = 1 }
		hidden_trigger = {
			is_bankrupt = no
		}
	}
    task_completed_effect = {
		add_estate_loyalty = {
			estate = estate_eunuchs
			loyalty = 10
		}
		generate_scaled_advisor_of_type_and_religion_effect = {
			type = treasurer
			religion = root
			discount = yes
		}
    }
    failing_effect = {
        add_estate_loyalty_modifier = {
            estate = estate_eunuchs
			desc = EST_VAL_AGENDA_DENIED
			loyalty = -5
			duration = 7300
        }
    }
}

#Improve Relations with X
estate_eunuchs_relations_with_X = {
	can_select = {
		any_known_country = {
			NOT = { is_rival = root }
			ROOT = { NOT = { is_rival = prev } }
			OR = {
				is_free_or_tributary_trigger = yes
				is_subject_of = root
			}
			NOT = { war_with = root }
			NOT = { has_opinion = { who = root value = 50 } }
			has_opinion = { who = root value = -50 }
			religion_group = root
			NOT = {
				any_owned_province = {
					is_core = root
				}
			}
			NOT = {
				border_distance = {
					who = root
					distance = 200
				}
			}
		}
	}
	selection_weight = {
		factor = 1
		modifier = {
			factor = 1.5
			any_known_country = {
				OR = {
					army_size = root
					alliance_with = root
				}
				NOT = { is_rival = root }
				ROOT = { NOT = { is_rival = prev } }
				OR = {
					is_free_or_tributary_trigger = yes
					is_subject_of = root
				}
				NOT = { war_with = root }
				NOT = { has_opinion = { who = root value = 50 } }
				has_opinion = { who = root value = -50 }
				religion_group = root
				NOT = {
					any_owned_province = {
						is_core = root
					}
				}
				NOT = {
					border_distance = {
						who = root
						distance = 200
					}
				}
			}
		}
		modifier = {
			factor = 0.5
			NOT = { num_of_free_diplomatic_relations = 1 }
		}
	}
	fail_if = {
		event_target:agenda_country = {
			OR = {
				NOT = { num_of_cities = 1 }
				war_with = root
				NOT = { has_opinion = { who = root value = -100 } }
			}
		}
	}
	pre_effect = {
		set_variable = {
			which = estate_eunuchs_relations_with_X
			value = 0
		}
		random_known_country = {
			limit = {
				NOT = { is_rival = root }
				ROOT = { NOT = { is_rival = prev } }
				OR = {
					is_free_or_tributary_trigger = yes
					is_subject_of = root
				}
				NOT = { war_with = root }
				NOT = { has_opinion = { who = root value = 50 } }
				has_opinion = { who = root value = -50 }
				religion_group = root
				NOT = {
					any_owned_province = {
						is_core = root
					}
				}
				NOT = {
					border_distance = {
						who = root
						distance = 200
					}
				}
			}
			save_event_target_as = agenda_country
		}
		random_known_country = {
			limit = {
				OR = {
					army_size = root
					alliance_with = root
				}
				NOT = { is_rival = root }
				ROOT = { NOT = { is_rival = prev } }
				OR = {
					is_free_or_tributary_trigger = yes
					is_subject_of = root
				}
				NOT = { war_with = root }
				NOT = { has_opinion = { who = root value = 50 } }
				has_opinion = { who = root value = -50 }
				religion_group = root
				NOT = {
					any_owned_province = {
						is_core = root
					}
				}
				NOT = {
					border_distance = {
						who = root
						distance = 200
					}
				}
			}
			save_event_target_as = agenda_country
		}
		if = {
			limit = {
				event_target:agenda_country = {
					NOT = { has_opinion = { who = root value = 0 } }
				}
			}
			set_variable = {
				which = estate_eunuchs_relations_with_X
				value = 1
			}
		}
		else = {
			set_variable = {
				which = estate_eunuchs_relations_with_X
				value = 2
			}
		}
	}
	provinces_to_highlight = {
		is_capital_of = event_target:agenda_country
	}
	task_requirements = {
		if = {
			limit = {
				check_variable = {
					which = estate_eunuchs_relations_with_X
					value = 2
				}
			}
			event_target:agenda_country = {
				has_opinion = {
					who = root
					value = 100
				}
			}
		}
		else = {
			event_target:agenda_country = {
				has_opinion = {
					who = root
					value = 50
				}
			}
		}
	}
	task_completed_effect = {
		add_estate_loyalty = {
			estate = estate_eunuchs
			loyalty = 15
		}
	}
    failing_effect = {
        add_estate_loyalty_modifier = {
            estate = estate_eunuchs
			desc = EST_VAL_AGENDA_DENIED
			loyalty = -5
			duration = 7300
        }
    }
}

#Make subject loyal
estate_eunuchs_reduce_liberty_desire_in_x = {
	can_select = {
		is_at_war = no
		is_subject = no
		any_subject_country = {
			is_subject_other_than_tributary_trigger = yes
			liberty_desire = 50
		}
	}
	selection_weight = {
		factor = 2
	}
	pre_effect = {
		random_subject_country = {
			limit = {
				is_subject_other_than_tributary_trigger = yes
				liberty_desire = 50
			}
			save_event_target_as = agenda_country
		}
	}
	fail_if = {
		OR = {
			is_subject = yes
			event_target:agenda_country = {
				OR = {
					NOT = { is_subject_of = root }
					NOT = { num_of_cities = 1 }
					war_with = root
				}
			}
		}
	}
	provinces_to_highlight = {
		is_capital_of = event_target:agenda_country
	}
	task_requirements = {
		event_target:agenda_country = { NOT = { liberty_desire = 40 } }
	}
	task_completed_effect = {
		add_estate_loyalty = {
			estate = estate_eunuchs
			loyalty = 10
		}
		add_dip_power = 50
	}
    failing_effect = {
        add_estate_loyalty_modifier = {
            estate = estate_eunuchs
			desc = EST_VAL_AGENDA_DENIED
			loyalty = -5
			duration = 7300
        }
    }
}

#Prosperity
estate_eunuchs_prosperity_in_x = {
	selection_weight = {
		factor = 1
	}
	can_select = {
		has_dlc = "Mandate of Heaven"
		any_owned_province = {
			is_state_core = root
			is_prosperous = no
			NOT = { devastation = 1 }
		}
	}
	pre_effect = {
		random_owned_province = {
			limit = {
				is_state_core = root
				is_prosperous = no
				NOT = { devastation = 1 }
			}
			save_event_target_as = agenda_province
		}
	}
	provinces_to_highlight = {
		province_id = event_target:agenda_province
	}
	fail_if = {
		event_target:agenda_province = {
			NOT = { owned_by = root }
		}
	}
    task_requirements = {
		event_target:agenda_province = {
			is_prosperous = yes
		}
    }
    task_completed_effect = {
		add_estate_loyalty = {
			estate = estate_eunuchs
			loyalty = 10
		}
		event_target:agenda_province = {
			add_base_tax = 1
		}
    }
    failing_effect = {
		event_target:agenda_province = {
			if = {
				limit = { owned_by = root }
				add_named_unrest = {
					name = local_administration_displeased
					value = 5
				}
			}
		}
        add_estate_loyalty_modifier = {
            estate = estate_eunuchs
			desc = EST_VAL_AGENDA_DENIED
			loyalty = -5
			duration = 7300
        }
    }
}

#Remove devastation
estate_eunuchs_remove_devastation_in_x = {
	selection_weight = {
		factor = 1
	}
	can_select = {
		has_dlc = "Mandate of Heaven"
		any_owned_province = {
			devastation = 30
		}
	}
	pre_effect = {
		random_owned_province = {
			limit = {
				devastation = 30
			}
			save_event_target_as = agenda_province
		}
	}
	provinces_to_highlight = {
		province_id = event_target:agenda_province
	}
	fail_if = {
		event_target:agenda_province = {
			NOT = { owned_by = root }
		}
	}
    task_requirements = {
		event_target:agenda_province = {
			NOT = { devastation = 1 }
		}
    }
    task_completed_effect = {
		add_estate_loyalty = {
			estate = estate_eunuchs
			loyalty = 10
		}
		add_prestige = 10
		if = {
			limit = { is_state_core = root }
			add_prosperity = 50
		}
    }
    failing_effect = {
		event_target:agenda_province = {
			if = {
				limit = { owned_by = root }
				add_named_unrest = {
					name = local_administration_displeased
					value = 5
				}
			}
		}
        add_estate_loyalty_modifier = {
            estate = estate_eunuchs
			desc = EST_VAL_AGENDA_DENIED
			loyalty = -5
			duration = 7300
        }
    }
}

#Build Courthouse
estate_eunuchs_build_courthouse_in_y = {
	can_select = {
		adm_tech = 4
		any_owned_province = {
			is_state_core = root
			NOT = { has_building = town_hall }
			OR = {
				AND = {
					NOT = { has_building = courthouse }
					num_free_building_slots = 1
				}
				AND = {
					ROOT = { adm_tech = 19 }
					has_building = courthouse
				}
			}
		}
	}
	selection_weight = {
		factor = 1
		modifier = {
			factor = 0.65
			NOT = {
				any_owned_province = {
					is_state_core = root
					development = 8
					NOT = { has_building = town_hall }
					OR = {
						AND = {
							NOT = { has_building = courthouse }
							num_free_building_slots = 1
						}
						AND = {
							ROOT = { adm_tech = 19 }
							has_building = courthouse
						}
					}
				}
			}
		}
		modifier = {
			factor = 1.2
			any_owned_province = {
				is_state_core = root
				development = 14
				NOT = { has_building = town_hall }
				OR = {
					AND = {
						NOT = { has_building = courthouse }
						num_free_building_slots = 1
					}
					AND = {
						ROOT = { adm_tech = 19 }
						has_building = courthouse
					}
				}
			}
		}
		modifier = {
			factor = 2
			NOT = {
				crown_land_share = 15
			}
		}
	}
	pre_effect = {
		set_variable = {
			which = estate_eunuchs_build_courthouse_in_y_var
			value = 0
		}
		random_owned_province = {
			limit = {
				is_state_core = root
				NOT = { has_building = town_hall }
				OR = {
					AND = {
						NOT = { has_building = courthouse }
						num_free_building_slots = 1
					}
					AND = {
						ROOT = { adm_tech = 19 }
						has_building = courthouse
					}
				}
			}
			save_event_target_as = agenda_province
		}
		random_owned_province = {
			limit = {
				is_state_core = root
				development = 8
				NOT = { has_building = town_hall }
				OR = {
					AND = {
						NOT = { has_building = courthouse }
						num_free_building_slots = 1
					}
					AND = {
						ROOT = { adm_tech = 19 }
						has_building = courthouse
					}
				}
			}
			save_event_target_as = agenda_province
		}
		random_owned_province = {
			limit = {
				is_state_core = root
				development = 14
				NOT = { has_building = town_hall }
				OR = {
					AND = {
						NOT = { has_building = courthouse }
						num_free_building_slots = 1
					}
					AND = {
						ROOT = { adm_tech = 19 }
						has_building = courthouse
					}
				}
			}
			save_event_target_as = agenda_province
		}
		event_target:agenda_province = {
			if = {
				limit = {
					NOT = { has_building = courthouse }
				}
				ROOT = {
					set_variable = {
						which = estate_eunuchs_build_courthouse_in_y_var
						value = 1
					}
				}
			}
			else = {
				ROOT = {
					set_variable = {
						which = estate_eunuchs_build_courthouse_in_y_var
						value = 2
					}
				}
			}
		}
	}
	provinces_to_highlight = {
		province_id = event_target:agenda_province
	}
	fail_if = {
		event_target:agenda_province = {
			NOT = { owned_by = root }
		}
	}
    task_requirements = {
		if = {
			limit = {
				check_variable = {
					which = estate_eunuchs_build_courthouse_in_y_var
					value = 2
				}
			}
			event_target:agenda_province = {
				has_building = town_hall
			}
		}
		else = {
			event_target:agenda_province = {
				OR = {
					has_building = courthouse
					has_building = town_hall
				}
			}
		}
    }
    task_completed_effect = {
		add_estate_loyalty = {
			estate = estate_eunuchs
			loyalty = 10
		}
		if = {
			limit = {
				NOT = { crown_land_share = 15 }
				estate_territory = {
					estate = estate_eunuchs
					territory = 10
				}
			}
			take_estate_land_share_small = { estate = estate_eunuchs }
		}
		else = {
			event_target:agenda_province = {
				add_base_manpower = 1
			}
		}
    }
    failing_effect = {
		event_target:agenda_province = {
			if = {
				limit = { owned_by = root }
				add_named_unrest = {
					name = local_clergy_displeased
					value = 5
				}
			}
		}
		add_estate_loyalty_modifier = {
			estate = estate_eunuchs
			desc = EST_VAL_AGENDA_DENIED
			loyalty = -5
			duration = 7300
		}
    }
}

#Support independence of X (subject of rival)
estate_eunuchs_support_independence = {
	can_select = {
		OR = {
			has_dlc = "Conquest of Paradise"
			has_dlc = "El Dorado"
		}
		is_at_war = no
		is_subject = no
		any_rival_country = {
			# NOT = { has_reform = daimyo }
			#Anbennar
			NOT = { has_reform = prabhi_reform }
			NOT = { has_reform = senapti_reform }
			NOT = { has_reform = xiaken }
			NOT = { ROOT = { truce_with = prev } }
			any_subject_country = {
				is_subject_other_than_tributary_trigger = yes
				liberty_desire = 50
				has_opinion = {
					who = root
					value = -100
				}
				ROOT = {
					NOT = { is_supporting_independence_of = prev }
				}
			}
		}
	}
	selection_weight = {
		factor = 2
	}
	pre_effect = {
		random_rival_country = {
			limit = {
				NOT = { ROOT = { truce_with = prev } }
				any_subject_country = {
					# NOT = { has_reform = daimyo }
					is_subject_other_than_tributary_trigger = yes
					liberty_desire = 50
					has_opinion = {
						who = root
						value = -100
					}
					ROOT = {
						NOT = { is_supporting_independence_of = prev }
					}
				}
			}
			save_event_target_as = agenda_rival_country
			random_subject_country = {
				limit = {
					# NOT = { has_reform = daimyo }
					is_subject_other_than_tributary_trigger = yes
					liberty_desire = 50
					has_opinion = {
						who = root
						value = -100
					}
					ROOT = {
						NOT = { is_supporting_independence_of = prev }
					}
				}
				save_event_target_as = agenda_country
			}
		}
	}
	fail_if = {
		OR = {
			is_subject = yes
			event_target:agenda_country = {
				OR = {
					NOT = { is_subject_of = event_target:agenda_rival_country }
					NOT = { num_of_cities = 1 }
					war_with = root
				}
			}
		}
	}
	provinces_to_highlight = {
		is_capital_of = event_target:agenda_country
	}
	task_requirements = {
		is_supporting_independence_of = event_target:agenda_country
	}
	task_completed_effect = {
		add_estate_loyalty = {
			estate = estate_eunuchs
			loyalty = 10
		}
		add_dip_power = 50
	}
    failing_effect = {
        add_estate_loyalty_modifier = {
            estate = estate_eunuchs
			desc = EST_VAL_AGENDA_DENIED
			loyalty = -5
			duration = 7300
        }
    }
}

#Protect our Culture in X
estate_eunuchs_protect_our_culture = {
	can_select = {
		NOT = { has_estate = estate_nobles }
		is_free_or_tributary_trigger = yes
		is_at_war = no
		any_neighbor_country = {
			NOT = { culture_group = root }
			any_owned_province = {
				culture = root
				religion = root
			}
		}
		any_owned_province = {
			any_neighbor_province = {
				is_city = yes
				religion = root
				culture = root
				has_owner_culture = no
				has_owner_accepted_culture = no
				has_discovered = root
				owner = {
					is_free_or_tributary_trigger = yes
					NOT = { culture_group = prev }
					NOT = { is_subject_of = root }
					NOT = { overlord_of = root }
					NOT = { alliance_with = root }
					NOT = { ROOT = { truce_with = prev } }
					OR = {
						is_part_of_hre = no
						NOT = { hre_reform_passed = landfriede }
						ROOT = { is_part_of_hre = no }
					}
				}
			}
		}
	}
	selection_weight = {
		factor = 1.5
		modifier = {
			factor = 0.25
			any_country = {
				coalition_target = root
			}
		}
	}
	pre_effect = {
		random_owned_province = {
			limit = {
				any_neighbor_province = {
					is_city = yes
					religion = root
					culture = root
					has_owner_culture = no
					has_owner_accepted_culture = no
					has_discovered = root
					owner = {
						is_free_or_tributary_trigger = yes
						NOT = { culture_group = prev }
						NOT = { is_subject_of = root }
						NOT = { overlord_of = root }
						NOT = { alliance_with = root }
						NOT = { ROOT = { truce_with = prev } }
						OR = {
							is_part_of_hre = no
							NOT = { hre_reform_passed = landfriede }
							ROOT = { is_part_of_hre = no }
						}
					}
				}
			}
			random_neighbor_province = {
				limit = {
					is_city = yes
					religion = root
					culture = root
					has_owner_culture = no
					has_owner_accepted_culture = no
					has_discovered = root
					owner = {
						is_free_or_tributary_trigger = yes
						NOT = { culture_group = prev }
						NOT = { is_subject_of = root }
						NOT = { overlord_of = root }
						NOT = { alliance_with = root }
						NOT = { ROOT = { truce_with = prev } }
						OR = {
							is_part_of_hre = no
							NOT = { hre_reform_passed = landfriede }
							ROOT = { is_part_of_hre = no }
						}
					}
				}
				save_event_target_as = agenda_province
				owner = { save_event_target_as = agenda_country }
			}
		}
	}
	immediate_effect = {
		if = {
			limit = {
				event_target:agenda_province = {
					OR = {
						AND = {
							NOT = { is_claim = root }
							NOT = { is_core = root }
						}
						any_neighbor_province = {
							owned_by = event_target:agenda_country
							NOT = { is_claim = root }
							NOT = { is_core = root }
							culture = root
						}
					}
				}
			}
			event_target:agenda_province = {
				if = {
					limit = {
						NOT = { is_claim = root }
						NOT = { is_core = root }
					}
					add_claim = root
				}
				every_neighbor_province = {
					limit = {
						owned_by = event_target:agenda_country
						NOT = { is_claim = root }
						NOT = { is_core = root }
						culture = root
					}
					add_claim = root
				}
			}
		}
	}
	on_invalid = {
		event_target:agenda_province = {
			if = {
				limit = {
					is_claim = root
					NOT = { is_permanent_claim = root }
				}
				remove_claim = root
			}
			every_neighbor_province = {
				if = {
					limit = {
						owned_by = event_target:agenda_country
						NOT = { is_permanent_claim = root }
						is_claim = root
					}
					remove_claim = root
				}
			}
		}
	}
	provinces_to_highlight = {
		province_id = event_target:agenda_province
	}
	task_requirements = {
		event_target:agenda_province = {
			owner = {
				primary_culture = root
			}
			hidden_trigger = { culture = root }
		}
	}
	fail_if = {
		event_target:agenda_province = {
			NOT = { culture = root }
		}
	}
	task_completed_effect = {
		if = {
			limit = {
				event_target:agenda_province = {
					owned_by = root
				}
			}
			event_target:agenda_province = {
				add_nationalism = -5
			}
		}
		else = { custom_tooltip = estate_nobles_protect_our_culture_effect_tooltip }
		add_estate_loyalty = {
			estate = estate_eunuchs
			loyalty = 15
		}
	}
    failing_effect = {
        add_estate_loyalty_modifier = {
            estate = estate_eunuchs
			desc = EST_VAL_AGENDA_DENIED
			loyalty = -5
			duration = 7300
		}
		event_target:agenda_province = {
			if = {
				limit = {
					is_claim = root
					NOT = { is_permanent_claim = root }
				}
				remove_claim = root
			}
			every_neighbor_province = {
				if = {
					limit = {
						owned_by = event_target:agenda_country
						NOT = { is_permanent_claim = root }
						is_claim = root
					}
					remove_claim = root
				}
			}
		}
    }
}

estate_eunuchs_vassalise_vulnerable_country = {
	can_select = {
		is_free_or_tributary_trigger = yes
		is_at_war = no
		num_of_cities = 12
		any_neighbor_country = {
			NOT = { has_reform = free_city }
			is_free_or_tributary_trigger = yes
			OR = {
				NOT = { num_of_cities = 4 }
				NOT = { total_development = 100 }
			}
			OR = {
				NOT = { num_of_cities = 3 }
				NOT = { total_development = 50 }
				ROOT = { total_development = 500 }
			}
			NOT = { is_subject_of = root }
			NOT = { overlord_of = root }
			NOT = { alliance_with = root }
			NOT = { ROOT = { truce_with = prev } }
			NOT = {
				has_opinion = {
					who = root
					value = 100
				}
			}
			OR = {
				is_part_of_hre = no
				NOT = { hre_reform_passed = landfriede }
				ROOT = { is_part_of_hre = no }
			}
			any_owned_province = {
				NOT = { is_claim = root }
				NOT = { is_core = root }
			}
		}
		NOT = { has_country_modifier = foreign_contacts }
	}
	selection_weight = {
		factor = 2
		modifier = {
			factor = 0.5
			has_non_generic_missions = yes
		}
		modifier = {
			factor = 1.5
			num_of_cities = 20
		}
		modifier = {
			factor = 1.5
			num_of_cities = 25
		}
		modifier = {
			factor = 1.5
			num_of_cities = 30
		}
		modifier = {
			factor = 1.5
			num_of_cities = 40
		}
		modifier = {
			factor = 1.5
			num_of_cities = 50
		}
		modifier = {
			factor = 0.25
			any_country = {
				coalition_target = root
			}
		}
	}
	pre_effect = {
		random_neighbor_country = {
			limit = {
				NOT = { has_reform = free_city }
				is_free_or_tributary_trigger = yes
				OR = {
					NOT = { num_of_cities = 4 }
					NOT = { total_development = 100 }
				}
				OR = {
					NOT = { num_of_cities = 3 }
					NOT = { total_development = 50 }
					ROOT = { total_development = 500 }
				}
				NOT = { is_subject_of = root }
				NOT = { overlord_of = root }
				NOT = { alliance_with = root }
				NOT = { ROOT = { truce_with = prev } }
				NOT = {
					has_opinion = {
						who = root
						value = 100
					}
				}
				OR = {
					is_part_of_hre = no
					NOT = { hre_reform_passed = landfriede }
					ROOT = { is_part_of_hre = no }
				}
				any_owned_province = {
					NOT = { is_claim = root }
					NOT = { is_core = root }
				}
			}
			save_event_target_as = agenda_country
			capital_scope = {
				save_event_target_as = agenda_province
			}
		}
	}
	immediate_effect = {
		add_casus_belli = {
			type = cb_vassalize_mission
			months = 240
			target = event_target:agenda_country
		}
	}
	on_invalid = {
		if = {
			limit = {
				has_casus_belli = {
					type = cb_vassalize_mission
					target = event_target:agenda_country
				}
			}
			remove_casus_belli = {
				type = cb_vassalize_mission
				target = event_target:agenda_country
			}
		}
	}
	provinces_to_highlight = {
		is_capital_of = event_target:agenda_country
	}
	task_requirements = {
		event_target:agenda_country = {
			is_subject_of = root
			NOT = { is_subject_of_type = tributary_state }
		}
	}
	fail_if = {
		OR = {
			is_subject_other_than_tributary_trigger = yes
			event_target:agenda_country = {
				NOT = { num_of_cities = 1 }
			}
		}
	}
	task_completed_effect = {
		add_estate_loyalty = {
			estate = estate_eunuchs
			loyalty = 10
		}
		add_country_modifier = {
			name = foreign_contacts
			duration = 3650
		}
		hidden_effect = {
			remove_casus_belli = {
				type = cb_vassalize_mission
				target = event_target:agenda_country
			}
		}
	}
    failing_effect = {
        add_estate_loyalty_modifier = {
            estate = estate_eunuchs
			desc = EST_VAL_AGENDA_DENIED
			loyalty = -5
			duration = 7300
		}
		if = {
			limit = {
				has_casus_belli = {
					type = cb_vassalize_mission
					target = event_target:agenda_country
				}
			}
			remove_casus_belli = {
				type = cb_vassalize_mission
				target = event_target:agenda_country
			}
		}
    }
}

#Annex vassal
estate_eunuchs_annex_subject = {
	can_select = {
		is_at_war = no
		diplomatic_reputation = 0
		any_subject_country = {
			NOT = { total_development = 300 }
			OR = {
				AND = {
					is_vassal = yes
					years_in_vassalage_under = {
						who = root
						years = 10
					}
				}
				AND = {
					is_lesser_in_union = yes
					years_in_union_under = {
						who = root
						years = 50
					}
				}
			}
		}
	}
	selection_weight = {
		factor = 3
	}
	pre_effect = {
		random_subject_country = {
			limit = {
				NOT = { total_development = 300 }
				OR = {
					AND = {
						is_vassal = yes
						years_in_vassalage_under = {
							who = root
							years = 10
						}
					}
					AND = {
						is_lesser_in_union = yes
						years_in_union_under = {
							who = root
							years = 50
						}
					}
				}
			}
			save_event_target_as = agenda_country
			capital_scope = {
				save_event_target_as = agenda_province
			}
			add_country_modifier = {
				name = to_be_agenda_annexed_timer
				duration = 7300
				hidden = yes
			}
		}
	}
	provinces_to_highlight = {
		OR = {
			province_id = event_target:agenda_province
			owned_by = event_target:agenda_country
		}
	}
	task_requirements = {
		event_target:agenda_country = {
			NOT = { num_of_cities = 1 }
		}
		event_target:agenda_province = {
			owned_by = root
		}
	}
	fail_if = {
		OR = {
			AND = {
				event_target:agenda_country = {
					NOT = { num_of_cities = 1 }
				}
				NOT = {
					event_target:agenda_province = {
						owned_by = root
					}
				}
			}
			event_target:agenda_country = {
				num_of_cities = 1
				NOT = { is_subject_of = root }
			}
		}
	}
	task_completed_effect = {
		add_estate_loyalty = {
			estate = estate_eunuchs
			loyalty = 10
		}
		custom_tooltip = no_penalties_annexing_tt
	}
    failing_effect = {
        add_estate_loyalty_modifier = {
            estate = estate_eunuchs
			desc = EST_VAL_AGENDA_DENIED
			loyalty = -5
			duration = 7300
        }
		hidden_effect = {
			event_target:agenda_country = {
				remove_country_modifier = to_be_agenda_annexed_timer
			}
		}
    }
}