
deepwoods_1 = {
	slot = 1
	generic = no
	ai = yes
	has_country_shield = yes
	
	potential = {
		primary_culture = wood_elf
		NOT = { tag = I45 }
	}
	
	WOOD_reclaim_the_emerald_path = {
		icon = mission_rb_conquer_wales
		ai = yes
		position = 2
		
		provinces_to_highlight = {
			OR = {
				province_id = 3049
				province_id = 3050
				province_id = 3053
				province_id = 3059
				province_id = 3063
			}
		}
		
		trigger = {
			3049 = { owner = { has_country_modifier = deepwoods_verdant_pact } }
			3050 = { owner = { has_country_modifier = deepwoods_verdant_pact } }
			3053 = { owner = { has_country_modifier = deepwoods_verdant_pact } }
			3059 = { owner = { has_country_modifier = deepwoods_verdant_pact } }
			3063 = { owner = { has_country_modifier = deepwoods_verdant_pact } }
		}
		
		effect = {
			add_country_modifier = {
				name = deepwoods_safe_wood
				duration = 10950
			}
		}
	}
}

deepwoods_1_b = {
	slot = 1
	generic = no
	ai = yes
	has_country_shield = yes
	
	potential = {
		primary_culture = wood_elf
		has_global_flag = end_verdant_pact
	}
	
	WOOD_own_the_emerald_path = {
		icon = mission_rb_conquer_wales
		ai = yes
		position = 3
		
		provinces_to_highlight = {
			OR = {
				province_id = 3049
				province_id = 3050
				province_id = 3053
				province_id = 3059
				province_id = 3063
			}
		}
		
		trigger = {
			owns = 3049
			owns = 3050
			owns = 3053
			owns = 3059
			owns = 3063
		}
		
		effect = {
			add_country_modifier = {
				name = deepwoods_safe_wood
				duration = 10950
			}
		}
	}
}

deepwoods_2 = {
	slot = 2
	generic = no
	ai = yes
	has_country_shield = yes
	
	potential = {
		primary_culture = wood_elf
		NOT = { tag = I45 }
	}
	
	WOOD_the_verdant_pact = {
		icon = mission_rb_conquer_the_highlands
		ai = yes
		position = 1
		
		
		trigger = {
			any_ally = {
				has_opinion = {
					who = ROOT
					value = 150
				}
			}
		}
		
		effect = {
			add_splendor = 200
			add_dip_power = 150
		}
	}
	
	WOOD_settle_the_refugees = {
		icon = mission_alliances
		ai = yes
		position = 2
		
		required_missions = {
			WOOD_the_verdant_pact
		}
		
		trigger = {
			treasury = 150
			stability = 0
		}
		
		effect = {
			add_treasury = -150
			if = {
				limit = { stability = 3 }
				capital_scope = {
					add_base_manpower = 1
					add_base_tax = 1
					add_base_production = 1
				}
			}
			else = {
				add_stability_or_adm_power = yes
			}
			capital_scope = {
				add_province_modifier = {
					name = deepwoods_settled_refugee
					duration = 18250
				}
			}
		}
	}
	
	WOOD_invest_in_capital = {
		icon = mission_early_game_buildings
		ai = yes
		position = 4
		
		required_missions = {
			WOOD_retaking_our_land
			WOOD_settle_the_refugees
		}
		
		trigger = {
			stability = 3
			adm_power = 150
		}
		
		effect = {
			add_adm_power = -150
			capital_scope = {
				add_base_tax = 1
				add_base_production = 1
				add_base_manpower = 1
			}
		}
	}
	
	WOOD_prosperous_capital = {
		icon = mission_early_modern_university
		ai = yes
		position = 5
		
		required_missions = {
			WOOD_invest_in_capital
		}
		
		trigger = {
			if = {
				limit = { has_dlc = "Mandate of Heaven" }
				custom_trigger_tooltip = {
					tooltip = prosperous_capital_tooltip
					capital_scope = { is_prosperous = yes }
				}
			}
			else = { capital_scope = { development = 25 } }
		}
		
		effect = {
			capital_scope = {
				center_of_trade = 1
			}
		}
	}
}


deepwoods_3 = {
	slot = 3
	generic = no
	ai = yes
	has_country_shield = yes
	
	potential = {
		primary_culture = wood_elf
		NOT = { tag = I45 }
	}
	
	WOOD_the_verdant_army = {
		icon = mission_build_up_to_force_limit
		ai = yes
		position = 1
		
		
		trigger = {
			if = {
				limit = { ai = yes }
				army_size_percentage = 0.5
			}
			else = {
				army_size_percentage = 1
			}
		}
		
		effect = {
			add_country_modifier = {
				name = deepwoods_verdant_army
				duration = 18250
			}
		}
	}
	
	WOOD_war_council = {
		icon = mission_indian_stateman
		ai = yes
		position = 2
		
		required_missions = {
			WOOD_the_verdant_army
		}
		
		trigger = {
			prestige = 20
			stability = 1
		}
		
		effect = {
			add_army_tradition = 15
		}
	}
	
	WOOD_retaking_our_land = {
		icon = mission_crusade_for_varna
		ai = yes
		position = 3
		
		required_missions = {
			WOOD_war_council
		}
		
		trigger = {
			all_core_province = {
				owned_by = ROOT
			}
		}
		
		effect = {
			add_prestige = 20
			every_core_province = {
				limit = { 
					owned_by = ROOT
					superregion = deepwoods_superregion
					NOT = { culture = wood_elf }
				}
				change_religion = fey_court
				change_culture = wood_elf
				add_devastation = 10
			}
		}
	}
}

deepwoods_3_b = {
	slot = 3
	generic = no
	ai = yes
	has_country_shield = yes
	
	potential = {
		primary_culture = wood_elf
		has_global_flag = end_verdant_pact
		NOT = { tag = I45 }
	}
	
	WOOD_end_of_the_green_menace = {
		icon = mission_steppe_warriors
		ai = yes
		position = 4
		
		required_missions = {
			WOOD_retaking_our_land
		}
		
		trigger = {
			if = {
				limit = { ai = no }
				stability = 3
				religious_unity = 1
				prestige = 0
			}
			else = {
				stability = 1
			}
		}
		
		effect = {
			add_prestige = 20
			add_country_modifier = {
				name = deepwoods_safe_wood
				duration = -1
			}
		}
	}
	
	WOOD_unite_the_deepwoods = {
		icon = mission_monarch_in_throne_room
		ai = yes
		position = 5
		
		required_missions = {
			WOOD_end_of_the_green_menace
		}
		
		trigger = {
			if = {
				limit = { ai = no }
				legitimacy = 95
				stability = 3
			}
			else = {
				stability = 1
			}
			is_subject = no
		}
		
		effect = {
			if = {
				limit = { ai = yes }
				add_stability = 2
			}
			deepwoods_superregion = {
				limit = {
					NOT = { is_core = ROOT }
					NOT = { is_permanent_claim = ROOT }
					NOT = { is_claim = ROOT }
					NOT = { owner = { is_subject_of = ROOT } }
				}
				add_permanent_claim = ROOT
			}
			custom_tooltip = unite_deepwoods_tooltip
			hidden_effect = {
				every_country = {
					limit = { 
						primary_culture = wood_elf
						capital_scope = { superregion = deepwoods_superregion }
						is_subject_of = ROOT
					}
					every_owned_province = {
						cede_province = ROOT
						add_core = ROOT
						change_culture = wood_elf
					}
				}
			}
		}
	}
}

deepwoods_4 = {
	slot = 4
	generic = no
	ai = yes
	has_country_shield = yes
	
	potential = {
		primary_culture = wood_elf
		NOT = { tag = I45 }
	}
	
	WOOD_at_war_with_the_enemy = {
		icon = mission_crusade_for_varna
		ai = yes
		position = 2
		
		required_missions = {
			WOOD_the_verdant_army
		}
		
		trigger = {
			at_war_with_religious_enemy = yes
		}
		
		effect = {
			add_prestige = 10
			add_country_modifier = {
				name = deepwoods_fight_for_the_wood
				duration = 3650
			}
		}
	}
}

deepwoods_4_b = {
	slot = 4
	generic = no
	ai = yes
	has_country_shield = yes
	
	potential = {
		primary_culture = wood_elf
		has_global_flag = end_verdant_pact
		NOT = { tag = I45 }
	}
	
	WOOD_uniting_the_deepwood = {
		icon = mission_junnagadh_fort
		ai = yes
		position = 2
		
		required_missions = {
			WOOD_at_war_with_the_enemy
		}
		
		trigger = {
			any_neighbor_country = {
				primary_culture = wood_elf
				war_with = ROOT
			}
		}
		
		effect = {
			add_prestige = 10
			add_country_modifier = {
				name = deepwoods_fight_for_the_wood
				duration = 3650
			}
		}
	}
}
	
	
deepwoods_4_c = {
	slot = 4
	generic = no
	ai = yes
	has_country_shield = yes
	
	potential = {
		primary_culture = wood_elf
		NOT = { tag = I45 }
	}
	WOOD_hegemony = {
		icon = mission_south_african_bases
		ai = yes
		position = 4
		
		required_missions = {
			WOOD_retaking_our_land
		}
		
		trigger = {
			any_subject_country = {
				primary_culture = wood_elf
				is_subject_of = ROOT
			}
		}
		
		effect = {
			add_prestige = 10
			add_country_modifier = {
				name = deepwoods_overlord
				duration = 18250
			}
		}
	}
}

